[gd_scene load_steps=5 format=2]

[ext_resource path="res://effects/shaders/shockwave/Shockwave.gd" type="Script" id=2]

[sub_resource type="Shader" id=1]
code = "shader_type canvas_item;

uniform float strength = 0.05;
uniform float size = 0.4;
uniform float thickness = 0.1;
uniform float chromatic_amount = 0.2;

void fragment() {
	float dist = distance(vec2(0.5, 0.5), UV);
	vec2 screen_uv = SCREEN_UV;
	vec2 outward = normalize(UV-vec2(0.5, 0.5));
	outward.y *= -1.0;
	float mask = (1.0-smoothstep(size-0.1, size, length(UV-vec2(0.5, 0.5))))
			* (smoothstep(size-thickness-0.1, size-thickness, length(UV-vec2(0.5, 0.5))));
	float effect_strength = strength*mask;
	screen_uv -= effect_strength*outward;
	COLOR = textureLod(SCREEN_TEXTURE, screen_uv, 0.0);
	//COLOR.r = textureLod(SCREEN_TEXTURE, screen_uv+vec2(chromatic_amount, 0.0)*effect_strength, 0.0).r;
	//COLOR.g = textureLod(SCREEN_TEXTURE, screen_uv+vec2(0.0, -chromatic_amount)*effect_strength, 0.0).g;
	//COLOR.b = textureLod(SCREEN_TEXTURE, screen_uv+vec2(-chromatic_amount, chromatic_amount)*effect_strength, 0.0).b;
}"

[sub_resource type="ShaderMaterial" id=2]
shader = SubResource( 1 )
shader_param/strength = 0.05
shader_param/size = 0.0
shader_param/thickness = 0.1
shader_param/chromatic_amount = 0.2

[sub_resource type="Animation" id=3]
resource_name = "shockwave"
tracks/0/type = "bezier"
tracks/0/path = NodePath(".:shockwave_size")
tracks/0/interp = 1
tracks/0/loop_wrap = true
tracks/0/imported = false
tracks/0/enabled = true
tracks/0/keys = {
"points": PoolRealArray( 0, -0.25, 0, 0.25, 0, 1, -0.25, 0, 0.25, 0 ),
"times": PoolRealArray( 0, 1 )
}

[node name="Shockwave" type="ColorRect"]
material = SubResource( 2 )
margin_right = 400.0
margin_bottom = 400.0
script = ExtResource( 2 )

[node name="AnimationPlayer" type="AnimationPlayer" parent="."]
anims/shockwave = SubResource( 3 )
